{
    "connectionString": "mongodb://admin:hAM3UYAM15ki@efa927a7-e961-4ff4-ae7c-e200d434617c-0.0135ec03d5bf43b196433793c98e8bd5.databases.appdomain.cloud:32482,efa927a7-e961-4ff4-ae7c-e200d434617c-1.0135ec03d5bf43b196433793c98e8bd5.databases.appdomain.cloud:32482/ibmclouddb?authSource=admin&replicaSet=replset",
    "secret": "4f96d24c-cd48-4fee-b84d-41740a830456"
}